com\example\grpc\hello\HelloServiceGrpc$HelloServiceFileDescriptorSupplier.class
com\example\grpc\hello\Hello$HelloRequest$1.class
HelloServer.class
com\example\grpc\hello\HelloServiceGrpc$HelloServiceStub.class
com\example\grpc\hello\Hello$HelloReply$Builder.class
com\example\grpc\hello\Hello$HelloRequest$Builder.class
com\example\grpc\hello\Hello$1.class
com\example\grpc\hello\HelloServiceGrpc.class
HelloClient.class
com\example\grpc\hello\Hello$HelloReply.class
com\example\grpc\hello\Hello$HelloRequestOrBuilder.class
com\example\grpc\hello\HelloServiceGrpc$HelloServiceBaseDescriptorSupplier.class
com\example\grpc\hello\HelloServiceGrpc$HelloServiceBlockingStub.class
com\example\grpc\hello\Hello$HelloReply$1.class
com\example\grpc\hello\HelloServiceGrpc$HelloServiceFutureStub.class
hello\HelloService.class
com\example\grpc\hello\HelloServiceGrpc$1.class
com\example\grpc\hello\Hello.class
com\example\grpc\hello\HelloServiceGrpc$MethodHandlers.class
com\example\grpc\hello\Hello$HelloReplyOrBuilder.class
com\example\grpc\hello\Hello$HelloRequest.class
com\example\grpc\hello\HelloServiceGrpc$HelloServiceMethodDescriptorSupplier.class
com\example\grpc\hello\HelloServiceGrpc$HelloServiceImplBase.class
